[gd_scene load_steps=2 format=2]

[ext_resource path="res://Code/UI/SettingsScreen/GenericSettingScenes/SettingCheckbox.tscn" type="PackedScene" id=1]

[node name="BorderlessFullscreen" index="0" instance=ExtResource( 1 )]

[node name="SettingLabel" parent="." index="0"]
text = "Fullscreen (Borderless)"
