[gd_resource type="DynamicFont" load_steps=2 format=2]

[ext_resource path="res://Resources/Fonts/Orbitron/Orbitron Bold.ttf" type="DynamicFontData" id=1]

[resource]
size = 75
font_data = ExtResource( 1 )
